^C:\USERS\CDORN\DESKTOP\PLAYING-CARDS\IAG.PLAYINGCARDS\DEBUG\MAIN.OBJ
C:\USERS\CDORN\DESKTOP\PLAYING-CARDS\DEBUG\IAG.PLAYINGCARDS.EXE
C:\USERS\CDORN\DESKTOP\PLAYING-CARDS\DEBUG\IAG.PLAYINGCARDS.ILK
C:\USERS\CDORN\DESKTOP\PLAYING-CARDS\DEBUG\IAG.PLAYINGCARDS.PDB
